irs_protocol_dimc.c:116:6:HAL_UART1_RxCpltCallback	24	static
irs_protocol_dimc.c:188:6:Parse_IRS_Command	24	static
irs_protocol_dimc.c:240:13:irs_execute_recieved_command	24	static
irs_protocol_dimc.c:352:6:IRS_Send_Msg_Operational_Status_Report	136	static
irs_protocol_dimc.c:423:6:IRS_Send_Msg_Maintanance_Actuator_Data	136	static
irs_protocol_dimc.c:454:6:IRS_Send_Msg_Log_Data_Report	192	static
irs_protocol_dimc.c:482:13:set_time_date_from_irs_msg	16	static
irs_protocol_dimc.c:505:13:irs_send_msg_pbit_results_report	136	static
irs_protocol_dimc.c:541:13:irs_send_msg_ibit_results_report	136	static
irs_protocol_dimc.c:571:13:irs_send_msg_sw_version_report	136	static
irs_protocol_dimc.c:602:6:IRS_Send_Msg_Maintenance_Report	152	static
irs_protocol_dimc.c:656:13:irs_message_transmit	24	static
irs_protocol_dimc.c:689:6:IRS_UART1_Serial_Init	16	static
