mcu_config_dimc.c:217:6:MCU_Periph_Config	8	static
mcu_config_dimc.c:260:13:system_clock_config	24	static
mcu_config_dimc.c:311:19:MCU_CAN_Interface_Init	8	static
mcu_config_dimc.c:331:13:exflash_i2c_init	8	static
mcu_config_dimc.c:356:13:irs_comm_usart1_init	8	static
mcu_config_dimc.c:384:13:mcu_gpio_pins_init_dimc	32	static
